4. Wrangling • PAGES
…
However, the question is a bit of trick question, as the variable names also contains information. Actually, there are additional variables stashed in the column names. In this case, the word in the variable name before the subscript _ is another categorical variable dividing the the label in two subsets; "landplant"; denoting whether the variable label describes a characteristic of land plant community composition (either pollen or spores), and "environment"; denoting whether the variable label describes a characteristic of the environment (i.e., is the palynomorph an aquatic or terrestrial component?).

To achieve the previous describe transformation to a long format data frame, and the extraction of the information in the column names, we construct the following call.

# long format
pivot_longer(
  data = kuhjoch, 
  cols = -Height,  
  names_to = c("type", "label"),
  values_to = "count",
  names_sep = "_"
  )
#> # A tibble: 180 x 4
#>    Height type        label       count
#>     <dbl> <chr>       <chr>       <int>
#>  1   1600 landplant   pollen         31
#>  2   1600 landplant   spores        277
#>  3   1600 environment aquatic        65
#>  4   1600 environment terrestrial   308
#>  5   1365 landplant   pollen         27
#>  6   1365 landplant   spores        262
#>  7   1365 environment aquatic       114
#>  8   1365 environment terrestrial   289
#>  9   1125 landplant   pollen         22
#> 10   1125 landplant   spores        282
#> # … with 170 more rows
…
